…
avocado %>% map_dbl(~sum(.x == 0))

##          date average_price  total_volume         x4046         x4225 
##             0             0             0           242            61 
##         x4770    total_bags    small_bags    large_bags  x_large_bags 
##          5497            15           159          2370         12048 
##          type          year        region 
##             0             0             0

Fortunately it seems that the dataset is complete. We can then start looking at different predictors to see their repartition amongst the data.

avocado %>% count(region)

## # A tibble: 54 x 2
##    region                  n
##    <chr>               <int>
##  1 Albany                338
##  2 Atlanta               338
##  3 BaltimoreWashington   338
##  4 Boise                 338
##  5 Boston                338
##  6 BuffaloRochester      338
##  7 California            338
##  8 Charlotte             338
##  9 Chicago               338
## 10 CincinnatiDayton      338
## # … with 44 more rows
…
It might be useful to express the quantities for each type of avocado sold as a fraction of the total volume of sales. Particularly because the correlation between these variables and the total volume should be really high.

avocado %>% mutate(across(.cols = x4046:x_large_bags, .fns = function(x) x/total_volume))

## # A tibble: 18,249 x 13
##    date       average_price total_volume   x4046 x4225    x4770 total_bags
##    <date>             <dbl>        <dbl>   <dbl> <dbl>    <dbl>      <dbl>
##  1 2015-12-27          1.33       64237. 0.0161  0.848 0.000750     0.135 
##  2 2015-12-20          1.35       54877. 0.0123  0.813 0.00106      0.173 
##  3 2015-12-13          0.93      118220. 0.00672 0.923 0.00110      0.0689
##  4 2015-12-06          1.08       78992. 0.0143  0.911 0.000919     0.0736
##  5 2015-11-29          1.28       51040. 0.0184  0.859 0.00148      0.121 
##  6 2015-11-22          1.26       55980. 0.0212  0.859 0.000779     0.119 
##  7 2015-11-15          0.99       83454. 0.0164  0.883 0.00112      0.0997
##  8 2015-11-08          0.98      109428. 0.00643 0.930 0.000731     0.0624
##  9 2015-11-01          1.02       99811. 0.0102  0.875 0.000855     0.114 
## 10 2015-10-25          1.07       74339. 0.0113  0.871 0.00152      0.116 
## # … with 18,239 more rows, and 6 more variables: small_bags <dbl>,
## #   large_bags <dbl>, x_large_bags <dbl>, type <chr>, year <dbl>, region <chr>
…
