Boardgames - A Hugo website
…
library(textrecipes) 
library(stacks) # package to ensemble models
doParallel::registerDoParallel(cores = 4) # Runs tuning calculation in parallel

raw_data <- read_csv("train.csv",
                     col_types = cols(
                       category7 = "c",
                       category8 = "c", 
                       category9 = "c",
                       category10 = "c",
                       category11 = "c",
                       category12 = "c")
)

## # A tibble: 3,499 x 26
##    game_id names        min_players max_players avg_time min_time max_time  year
##      <dbl> <chr>              <dbl>       <dbl>    <dbl>    <dbl>    <dbl> <dbl>
##  1   17526 Hecatomb               2           4       30       30       30  2005
##  2     156 Wildlife Ad…           2           6       60       60       60  1985
##  3    2397 Backgammon             2           2       30       30       30 -3000
##  4    8147 Maka Bana              2           6       60       45       60  2003
##  5   92190 Super Dunge…           2           6      120      120      120  2011
##  6    1668 Modern Nava…           2           6       90       90       90  1989
##  7   28089 Château Roq…           2           4       30       30       30  2007
##  8    4854 7th Fleet              2           2      120      120      120  1987
##  9   75333 Target Earth           1           4       90       90       90  2010
## 10   21791 Masons                 2           4       45       45       45  2006
## # … with 3,489 more rows, and 18 more variables: geek_rating <dbl>,
## #   num_votes <dbl>, age <dbl>, mechanic <chr>, owned <dbl>, category1 <chr>,
## #   category2 <chr>, category3 <chr>, category4 <chr>, category5 <chr>,
## #   category6 <chr>, category7 <chr>, category8 <chr>, category9 <chr>,
## #   category10 <chr>, category11 <chr>, category12 <chr>, designer <chr>
…
In contrast, for most case avg_time >= min_time which means that both of them might be helpful.

raw_data %>%
  select(mechanic) %>%
  separate_rows(mechanic, sep = ", |/") %>%
  mutate(mechanic = str_trim(mechanic)) %>%
  count(mechanic, sort = TRUE) 

## # A tibble: 60 x 2
##    mechanic                   n
##    <chr>                  <int>
##  1 Dice Rolling             990
##  2 Hand Management          963
##  3 Variable Player Powers   646
##  4 Set Collection           511
##  5 Area Control             446
##  6 Area Influence           446
##  7 Card Drafting            415
##  8 Modular Board            401
##  9 Tile Placement           391
## 10 Hex-and-Counter          317
## # … with 50 more rows
…
