…
avatar_raw %>% 
  count(character, sort = TRUE)

## # A tibble: 374 x 2
##    character             n
##    <chr>             <int>
##  1 Scene Description  3393
##  2 Aang               1796
##  3 Sokka              1639
##  4 Katara             1437
##  5 Zuko                776
##  6 Toph                507
##  7 Iroh                337
##  8 Azula               211
##  9 Jet                 134
## 10 Suki                114
## # â€¦ with 364 more rows
…
## The following objects are masked from 'package:recipes':
## 
##     step_downsample, step_upsample

library(textrecipes)

rec_avatar <- recipe(aang ~ text, data = avatar_train) %>% 
  step_downsample(aang) %>% 
  step_textfeature(text) %>% 
  step_zv(all_predictors()) %>% 
  step_normalize(all_predictors())
prep_avatar <- prep(rec_avatar)
juice(prep_avatar)

## # A tibble: 2,694 x 13
##    aang  textfeature_textâ€¦ textfeature_text_â€¦ textfeature_texâ€¦ textfeature_textâ€¦
##    <fct>             <dbl>              <dbl>            <dbl>             <dbl>
##  1 Aang            -0.361              -0.359          -0.463             -0.290
##  2 Aang            -0.630              -0.685          -0.568             -1.15 
##  3 Aang            -0.361              -0.359          -0.336             -0.146
##  4 Aang            -0.630              -0.685          -0.610             -0.721
##  5 Aang            -0.630              -0.685          -0.695             -1.01 
##  6 Aang            -0.272              -0.251          -0.294              0.428
##  7 Aang            -0.630              -0.685          -0.631             -0.721
##  8 Aang             0.0861              0.183           0.0646             0.572
##  9 Aang            -0.809              -0.901          -0.842             -1.58 
## 10 Aang            -0.182              -0.142          -0.0198             0.572
## # â€¦ with 2,684 more rows, and 8 more variables:
## #   textfeature_text_n_commas <dbl>, textfeature_text_n_periods <dbl>,
## #   textfeature_text_n_exclaims <dbl>, textfeature_text_n_extraspaces <dbl>,
## #   textfeature_text_n_caps <dbl>, textfeature_text_n_lowers <dbl>,
## #   textfeature_text_n_nonasciis <dbl>, textfeature_text_n_puncts <dbl>
…
